[16/06/2016 17:56:44] /m shiny salamance
[16/06/2016 17:56:51] /m shiny salamance
[16/06/2016 19:02:03] /m lucario
[16/06/2016 20:50:16] /m Mega Blaziken
[16/06/2016 20:50:31] /m Blaziken
[16/06/2016 20:51:14] /i 15136
[17/06/2016 12:59:56] /m Shiny Hitmonlee
[17/06/2016 18:40:55] /a 50
[17/06/2016 18:41:02] /a 50
[17/06/2016 18:41:04] /a 50
[17/06/2016 18:41:06] /a 50
[18/06/2016 22:35:52] /t
[19/06/2016 11:45:27] /a 50
